<svg xmlns="http://www.w3.org/2000/svg" xmlns:xlink="http://www.w3.org/1999/xlink" style="isolation:isolate" viewBox="0 0 24 24" width="24pt" height="24pt" class="icon-arpeggio">
  <path class="secondary" d=" M 18.949 16.377 C 18.975 16.751 18.789 17.109 18.467 17.303 C 18.146 17.497 17.742 17.494 17.423 17.295 C 17.104 17.097 16.923 16.737 16.955 16.362 L 17.375 2.4 C 18.007 2.401 18.366 3.127 19.044 3 L 18.949 16.377 Z " fill="rgb(0,0,0)"/>
  <path class="primary" d=" M 2.149 21.316 C 1.866 20.116 3.382 18.731 5.531 18.226 C 7.68 17.72 9.654 18.284 9.936 19.484 C 10.218 20.684 8.703 22.068 6.554 22.574 C 4.405 23.079 2.431 22.516 2.149 21.316 Z " fill="rgb(0,0,0)"/>
  <path class="secondary" d=" M 11.128 18.212 C 10.845 17.012 12.361 15.627 14.51 15.121 C 16.659 14.616 18.633 15.18 18.915 16.379 C 19.197 17.579 17.682 18.964 15.533 19.47 C 13.384 19.975 11.41 19.411 11.128 18.212 Z " fill="rgb(0,0,0)"/>
  <path class="primary" d=" M 9.975 6.178 L 9.97 19.481 C 9.996 19.856 9.81 20.213 9.488 20.407 C 9.167 20.601 8.763 20.598 8.444 20.4 C 8.125 20.201 7.944 19.841 7.976 19.467 L 8.271 5.06 Q 8.661 4.669 18.984 1.508 C 19.066 2.198 19.116 2.655 19.045 3.241 Q 18.655 3.632 9.975 6.178 Z " fill="rgb(0,0,0)"/>
</svg>