<svg xmlns="http://www.w3.org/2000/svg" xmlns:xlink="http://www.w3.org/1999/xlink" style="isolation:isolate" viewBox="0 0 24 24" width="24pt" height="24pt" class="icon-chord">
  <path class="secondary" d=" M 7.149 15.316 C 6.866 14.116 8.382 12.731 10.531 12.226 C 12.68 11.72 14.654 12.284 14.936 13.484 C 15.218 14.684 13.703 16.068 11.554 16.574 C 9.405 17.079 7.431 16.516 7.149 15.316 Z " fill="rgb(0,0,0)"/>
  <path class="primary" d=" M 14.97 4.915 L 14.97 19.481 C 14.996 19.856 14.81 20.213 14.488 20.407 C 14.167 20.601 13.763 20.598 13.444 20.4 C 13.125 20.201 12.944 19.841 12.976 19.467 L 13.266 1.796 C 13.656 1.406 14.289 1.406 14.68 1.796 L 18.923 6.039 C 19.313 6.429 19.313 7.062 18.923 7.453 C 18.532 7.844 17.899 7.844 17.508 7.453 L 14.97 4.915 Z " fill="rgb(0,0,0)"/>
  <path class="primary" d=" M 7.149 21.316 C 6.866 20.116 8.382 18.731 10.531 18.226 C 12.68 17.72 14.654 18.284 14.936 19.484 C 15.218 20.684 13.703 22.068 11.554 22.574 C 9.405 23.079 7.431 22.516 7.149 21.316 Z " fill="rgb(0,0,0)"/>
</svg>