<svg xmlns="http://www.w3.org/2000/svg" xmlns:xlink="http://www.w3.org/1999/xlink" style="isolation:isolate" viewBox="415.944 353.072 337.032 52.92" width="200" height="100%" class="logo">
  <defs>
    <clipPath id="_clipPath_HCWyJ4H15d0TIpgxiq8qUz69C89rM0p9">
      <rect x="415.944" y="353.072" width="337.032" height="52.92"/>
    </clipPath>
  </defs>
  <g clip-path="url(#_clipPath_HCWyJ4H15d0TIpgxiq8qUz69C89rM0p9)">
    <path d=" M 615.024 373.448 L 610.416 377.84 L 610.416 377.84 Q 609.336 376.616 608.22 375.752 L 608.22 375.752 L 608.22 375.752 Q 607.104 374.888 605.232 374.888 L 605.232 374.888 L 605.232 374.888 Q 604.152 374.888 602.82 375.212 L 602.82 375.212 L 602.82 375.212 Q 601.488 375.536 600.336 376.796 L 600.336 376.796 L 600.336 376.796 Q 599.184 378.056 598.428 380.504 L 598.428 380.504 L 598.428 380.504 Q 597.672 382.952 597.672 387.128 L 597.672 387.128 L 597.672 387.128 Q 597.672 391.376 598.428 393.86 L 598.428 393.86 L 598.428 393.86 Q 599.184 396.344 600.372 397.712 L 600.372 397.712 L 600.372 397.712 Q 601.56 399.08 602.928 399.476 L 602.928 399.476 L 602.928 399.476 Q 604.296 399.872 605.592 399.872 L 605.592 399.872 L 605.592 399.872 Q 606.6 399.872 607.68 399.692 L 607.68 399.692 L 607.68 399.692 Q 608.76 399.512 609.768 399.26 L 609.768 399.26 L 609.768 399.26 Q 610.776 399.008 611.532 398.792 L 611.532 398.792 L 611.532 398.792 Q 612.288 398.576 612.648 398.432 L 612.648 398.432 L 614.664 403.616 L 614.664 403.616 Q 614.448 403.688 613.692 404.048 L 613.692 404.048 L 613.692 404.048 Q 612.936 404.408 611.64 404.768 L 611.64 404.768 L 611.64 404.768 Q 610.344 405.128 608.544 405.452 L 608.544 405.452 L 608.544 405.452 Q 606.744 405.776 604.512 405.776 L 604.512 405.776 L 604.512 405.776 Q 600.336 405.776 597.384 404.516 L 597.384 404.516 L 597.384 404.516 Q 594.432 403.256 592.524 400.952 L 592.524 400.952 L 592.524 400.952 Q 590.616 398.648 589.716 395.408 L 589.716 395.408 L 589.716 395.408 Q 588.816 392.168 588.816 388.208 L 588.816 388.208 L 588.816 388.208 Q 588.816 383.456 590.076 379.784 L 590.076 379.784 L 590.076 379.784 Q 591.336 376.112 593.568 373.628 L 593.568 373.628 L 593.568 373.628 Q 595.8 371.144 598.824 369.848 L 598.824 369.848 L 598.824 369.848 Q 601.848 368.552 605.304 368.552 L 605.304 368.552 L 605.304 368.552 Q 608.688 368.552 611.028 369.848 L 611.028 369.848 L 611.028 369.848 Q 613.368 371.144 615.024 373.448 L 615.024 373.448 Z  M 628.704 353.072 L 628.704 374.024 L 628.704 374.024 Q 630.792 371.288 633.708 370.064 L 633.708 370.064 L 633.708 370.064 Q 636.624 368.84 639.864 368.84 L 639.864 368.84 L 639.864 368.84 Q 645.408 368.84 647.892 372.188 L 647.892 372.188 L 647.892 372.188 Q 650.376 375.536 650.376 381.224 L 650.376 381.224 L 650.376 405.272 L 642.168 405.272 L 642.168 381.8 L 642.168 381.8 Q 642.168 378.776 641.088 377.012 L 641.088 377.012 L 641.088 377.012 Q 640.008 375.248 637.416 375.248 L 637.416 375.248 L 637.416 375.248 Q 635.904 375.248 634.356 376.04 L 634.356 376.04 L 634.356 376.04 Q 632.808 376.832 631.548 378.308 L 631.548 378.308 L 631.548 378.308 Q 630.288 379.784 629.496 381.8 L 629.496 381.8 L 629.496 381.8 Q 628.704 383.816 628.704 386.264 L 628.704 386.264 L 628.704 405.272 L 620.496 405.272 L 620.496 354.512 L 628.704 353.072 Z  M 657.216 388.208 L 657.216 388.208 Q 657.216 383.384 658.548 379.712 L 658.548 379.712 L 658.548 379.712 Q 659.88 376.04 662.22 373.556 L 662.22 373.556 L 662.22 373.556 Q 664.56 371.072 667.728 369.812 L 667.728 369.812 L 667.728 369.812 Q 670.896 368.552 674.568 368.552 L 674.568 368.552 L 674.568 368.552 Q 677.808 368.552 680.076 369.344 L 680.076 369.344 L 680.076 369.344 Q 682.344 370.136 683.784 371.504 L 683.784 371.504 L 683.784 371.504 Q 685.224 372.872 685.908 374.744 L 685.908 374.744 L 685.908 374.744 Q 686.592 376.616 686.592 378.776 L 686.592 378.776 L 686.592 378.776 Q 686.592 381.368 685.152 383.708 L 685.152 383.708 L 685.152 383.708 Q 683.712 386.048 681.012 387.812 L 681.012 387.812 L 681.012 387.812 Q 678.312 389.576 674.496 390.62 L 674.496 390.62 L 674.496 390.62 Q 670.68 391.664 665.928 391.736 L 665.928 391.736 L 665.928 391.736 Q 666.144 393.392 666.612 394.868 L 666.612 394.868 L 666.612 394.868 Q 667.08 396.344 667.98 397.46 L 667.98 397.46 L 667.98 397.46 Q 668.88 398.576 670.32 399.224 L 670.32 399.224 L 670.32 399.224 Q 671.76 399.872 673.92 399.872 L 673.92 399.872 L 673.92 399.872 Q 675.504 399.872 677.304 399.512 L 677.304 399.512 L 677.304 399.512 Q 679.104 399.152 680.616 398.648 L 680.616 398.648 L 680.616 398.648 Q 682.416 398.072 684.144 397.352 L 684.144 397.352 L 686.304 402.464 L 686.304 402.464 Q 684.432 403.4 682.272 404.12 L 682.272 404.12 L 682.272 404.12 Q 680.4 404.768 677.952 405.272 L 677.952 405.272 L 677.952 405.272 Q 675.504 405.776 672.768 405.776 L 672.768 405.776 L 672.768 405.776 Q 668.592 405.776 665.64 404.516 L 665.64 404.516 L 665.64 404.516 Q 662.688 403.256 660.816 400.952 L 660.816 400.952 L 660.816 400.952 Q 658.944 398.648 658.08 395.408 L 658.08 395.408 L 658.08 395.408 Q 657.216 392.168 657.216 388.208 L 657.216 388.208 Z  M 673.92 374.168 L 673.92 374.168 Q 671.544 374.168 669.996 375.284 L 669.996 375.284 L 669.996 375.284 Q 668.448 376.4 667.512 378.164 L 667.512 378.164 L 667.512 378.164 Q 666.576 379.928 666.18 382.124 L 666.18 382.124 L 666.18 382.124 Q 665.784 384.32 665.712 386.552 L 665.712 386.552 L 665.712 386.552 Q 669.168 386.408 671.58 385.652 L 671.58 385.652 L 671.58 385.652 Q 673.992 384.896 675.504 383.78 L 675.504 383.78 L 675.504 383.78 Q 677.016 382.664 677.7 381.368 L 677.7 381.368 L 677.7 381.368 Q 678.384 380.072 678.384 378.776 L 678.384 378.776 L 678.384 378.776 Q 678.384 376.688 677.16 375.428 L 677.16 375.428 L 677.16 375.428 Q 675.936 374.168 673.92 374.168 L 673.92 374.168 Z  M 722.376 370.928 L 722.376 387.92 L 722.376 387.92 Q 722.376 392.24 722.916 395.156 L 722.916 395.156 L 722.916 395.156 Q 723.456 398.072 724.104 399.872 L 724.104 399.872 L 724.104 399.872 Q 724.896 402.032 725.832 403.256 L 725.832 403.256 L 719.424 405.848 L 719.424 405.848 Q 718.488 404.912 717.696 403.616 L 717.696 403.616 L 717.696 403.616 Q 717.048 402.464 716.472 400.844 L 716.472 400.844 L 716.472 400.844 Q 715.896 399.224 715.752 396.992 L 715.752 396.992 L 715.752 396.992 Q 714.528 401.312 711.828 403.508 L 711.828 403.508 L 711.828 403.508 Q 709.128 405.704 704.52 405.704 L 704.52 405.704 L 704.52 405.704 Q 701.136 405.704 698.652 404.444 L 698.652 404.444 L 698.652 404.444 Q 696.168 403.184 694.512 400.844 L 694.512 400.844 L 694.512 400.844 Q 692.856 398.504 692.064 395.192 L 692.064 395.192 L 692.064 395.192 Q 691.272 391.88 691.272 387.848 L 691.272 387.848 L 691.272 387.848 Q 691.272 383.744 692.532 380.252 L 692.532 380.252 L 692.532 380.252 Q 693.792 376.76 696.06 374.24 L 696.06 374.24 L 696.06 374.24 Q 698.328 371.72 701.496 370.28 L 701.496 370.28 L 701.496 370.28 Q 704.664 368.84 708.48 368.84 L 708.48 368.84 L 708.48 368.84 Q 710.64 368.84 712.98 369.164 L 712.98 369.164 L 712.98 369.164 Q 715.32 369.488 717.336 369.848 L 717.336 369.848 L 717.336 369.848 Q 719.352 370.208 720.756 370.532 L 720.756 370.532 L 720.756 370.532 Q 722.16 370.856 722.376 370.928 L 722.376 370.928 Z  M 705.888 399.944 L 705.888 399.944 Q 707.688 399.944 709.2 398.72 L 709.2 398.72 L 709.2 398.72 Q 710.712 397.496 711.828 395.516 L 711.828 395.516 L 711.828 395.516 Q 712.944 393.536 713.556 390.98 L 713.556 390.98 L 713.556 390.98 Q 714.168 388.424 714.168 385.76 L 714.168 385.76 L 714.168 375.392 L 714.168 375.392 Q 713.448 375.176 712.008 374.888 L 712.008 374.888 L 712.008 374.888 Q 710.568 374.6 709.416 374.6 L 709.416 374.6 L 709.416 374.6 Q 706.68 374.6 704.916 375.536 L 704.916 375.536 L 704.916 375.536 Q 703.152 376.472 702.072 378.128 L 702.072 378.128 L 702.072 378.128 Q 700.992 379.784 700.56 382.088 L 700.56 382.088 L 700.56 382.088 Q 700.128 384.392 700.128 387.128 L 700.128 387.128 L 700.128 387.128 Q 700.128 389.648 700.272 391.952 L 700.272 391.952 L 700.272 391.952 Q 700.416 394.256 701.028 396.056 L 701.028 396.056 L 701.028 396.056 Q 701.64 397.856 702.792 398.9 L 702.792 398.9 L 702.792 398.9 Q 703.944 399.944 705.888 399.944 L 705.888 399.944 Z  M 728.064 375.248 L 728.064 369.416 L 734.544 369.416 L 735.984 360.992 L 742.752 359.48 L 742.752 369.416 L 751.608 369.416 L 750.6 375.248 L 742.752 375.248 L 742.752 396.56 L 742.752 396.56 Q 742.752 398.432 743.76 398.972 L 743.76 398.972 L 743.76 398.972 Q 744.768 399.512 745.992 399.512 L 745.992 399.512 L 745.992 399.512 Q 747 399.512 748.008 399.368 L 748.008 399.368 L 748.008 399.368 Q 749.016 399.224 749.808 399.008 L 749.808 399.008 L 749.808 399.008 Q 750.744 398.792 751.608 398.504 L 751.608 398.504 L 752.976 403.904 L 752.328 404.12 L 752.328 404.12 Q 751.68 404.408 750.42 404.732 L 750.42 404.732 L 750.42 404.732 Q 749.16 405.056 747.468 405.308 L 747.468 405.308 L 747.468 405.308 Q 745.776 405.56 743.76 405.56 L 743.76 405.56 L 743.76 405.56 Q 741.744 405.56 740.052 405.128 L 740.052 405.128 L 740.052 405.128 Q 738.36 404.696 737.136 403.724 L 737.136 403.724 L 737.136 403.724 Q 735.912 402.752 735.228 401.24 L 735.228 401.24 L 735.228 401.24 Q 734.544 399.728 734.544 397.496 L 734.544 397.496 L 734.544 375.248 L 728.064 375.248 Z  M 443.952 373.52 L 438.336 379.352 L 438.336 379.352 Q 437.472 378.344 436.536 377.624 L 436.536 377.624 L 436.536 377.624 Q 435.6 376.904 434.16 376.904 L 434.16 376.904 L 434.16 376.904 Q 433.296 376.904 432.216 377.192 L 432.216 377.192 L 432.216 377.192 Q 431.136 377.48 430.2 378.524 L 430.2 378.524 L 430.2 378.524 Q 429.264 379.568 428.652 381.548 L 428.652 381.548 L 428.652 381.548 Q 428.04 383.528 428.04 386.984 L 428.04 386.984 L 428.04 386.984 Q 428.04 390.368 428.724 392.42 L 428.724 392.42 L 428.724 392.42 Q 429.408 394.472 430.452 395.552 L 430.452 395.552 L 430.452 395.552 Q 431.496 396.632 432.756 396.992 L 432.756 396.992 L 432.756 396.992 Q 434.016 397.352 435.168 397.352 L 435.168 397.352 L 435.168 397.352 Q 436.032 397.352 437.04 397.136 L 437.04 397.136 L 437.04 397.136 Q 438.048 396.92 438.948 396.668 L 438.948 396.668 L 438.948 396.668 Q 439.848 396.416 440.496 396.164 L 440.496 396.164 L 440.496 396.164 Q 441.144 395.912 441.216 395.912 L 441.216 395.912 L 443.304 403.472 L 442.512 403.832 L 442.512 403.832 Q 441.72 404.264 440.316 404.732 L 440.316 404.732 L 440.316 404.732 Q 438.912 405.2 436.932 405.56 L 436.932 405.56 L 436.932 405.56 Q 434.952 405.92 432.576 405.92 L 432.576 405.92 L 432.576 405.92 Q 428.184 405.92 425.016 404.624 L 425.016 404.624 L 425.016 404.624 Q 421.848 403.328 419.832 401.024 L 419.832 401.024 L 419.832 401.024 Q 417.816 398.72 416.88 395.444 L 416.88 395.444 L 416.88 395.444 Q 415.944 392.168 415.944 388.208 L 415.944 388.208 L 415.944 388.208 Q 415.944 383.384 417.276 379.676 L 417.276 379.676 L 417.276 379.676 Q 418.608 375.968 420.948 373.448 L 420.948 373.448 L 420.948 373.448 Q 423.288 370.928 426.492 369.668 L 426.492 369.668 L 426.492 369.668 Q 429.696 368.408 433.44 368.408 L 433.44 368.408 L 433.44 368.408 Q 436.968 368.408 439.632 369.812 L 439.632 369.812 L 439.632 369.812 Q 442.296 371.216 443.952 373.52 L 443.952 373.52 Z  M 459.648 353.072 L 459.648 371.864 L 459.648 371.864 Q 461.52 370.208 463.968 369.416 L 463.968 369.416 L 463.968 369.416 Q 466.416 368.624 469.08 368.624 L 469.08 368.624 L 469.08 368.624 Q 474.696 368.624 477.072 372.008 L 477.072 372.008 L 477.072 372.008 Q 479.448 375.392 479.448 381.152 L 479.448 381.152 L 479.448 405.272 L 468 405.272 L 468 382.808 L 468 382.808 Q 468 380.288 467.388 378.74 L 467.388 378.74 L 467.388 378.74 Q 466.776 377.192 465.12 377.192 L 465.12 377.192 L 465.12 377.192 Q 464.184 377.192 463.212 377.804 L 463.212 377.804 L 463.212 377.804 Q 462.24 378.416 461.448 379.604 L 461.448 379.604 L 461.448 379.604 Q 460.656 380.792 460.152 382.484 L 460.152 382.484 L 460.152 382.484 Q 459.648 384.176 459.648 386.264 L 459.648 386.264 L 459.648 405.272 L 448.272 405.272 L 448.272 355.016 L 459.648 353.072 Z  M 502.2 368.408 L 502.2 368.408 Q 510.768 368.408 514.692 373.304 L 514.692 373.304 L 514.692 373.304 Q 518.616 378.2 518.616 386.84 L 518.616 386.84 L 518.616 386.84 Q 518.616 390.944 517.572 394.436 L 517.572 394.436 L 517.572 394.436 Q 516.528 397.928 514.404 400.484 L 514.404 400.484 L 514.404 400.484 Q 512.28 403.04 509.076 404.516 L 509.076 404.516 L 509.076 404.516 Q 505.872 405.992 501.624 405.992 L 501.624 405.992 L 501.624 405.992 Q 497.304 405.992 494.172 404.732 L 494.172 404.732 L 494.172 404.732 Q 491.04 403.472 489.06 401.096 L 489.06 401.096 L 489.06 401.096 Q 487.08 398.72 486.108 395.3 L 486.108 395.3 L 486.108 395.3 Q 485.136 391.88 485.136 387.632 L 485.136 387.632 L 485.136 387.632 Q 485.136 383.528 486.18 380 L 486.18 380 L 486.18 380 Q 487.224 376.472 489.348 373.916 L 489.348 373.916 L 489.348 373.916 Q 491.472 371.36 494.676 369.884 L 494.676 369.884 L 494.676 369.884 Q 497.88 368.408 502.2 368.408 L 502.2 368.408 Z  M 501.552 376.976 L 501.552 376.976 Q 500.256 376.976 499.392 377.732 L 499.392 377.732 L 499.392 377.732 Q 498.528 378.488 498.06 379.82 L 498.06 379.82 L 498.06 379.82 Q 497.592 381.152 497.412 382.952 L 497.412 382.952 L 497.412 382.952 Q 497.232 384.752 497.232 386.84 L 497.232 386.84 L 497.232 386.84 Q 497.232 389 497.448 390.944 L 497.448 390.944 L 497.448 390.944 Q 497.664 392.888 498.204 394.328 L 498.204 394.328 L 498.204 394.328 Q 498.744 395.768 499.752 396.596 L 499.752 396.596 L 499.752 396.596 Q 500.76 397.424 502.272 397.424 L 502.272 397.424 L 502.272 397.424 Q 503.568 397.424 504.432 396.632 L 504.432 396.632 L 504.432 396.632 Q 505.296 395.84 505.764 394.508 L 505.764 394.508 L 505.764 394.508 Q 506.232 393.176 506.412 391.376 L 506.412 391.376 L 506.412 391.376 Q 506.592 389.576 506.592 387.56 L 506.592 387.56 L 506.592 387.56 Q 506.592 385.328 506.376 383.42 L 506.376 383.42 L 506.376 383.42 Q 506.16 381.512 505.62 380.072 L 505.62 380.072 L 505.62 380.072 Q 505.08 378.632 504.072 377.804 L 504.072 377.804 L 504.072 377.804 Q 503.064 376.976 501.552 376.976 L 501.552 376.976 Z  M 542.736 379.496 L 542.736 379.496 Q 541.944 379.496 541.008 379.928 L 541.008 379.928 L 541.008 379.928 Q 540.072 380.36 539.208 381.26 L 539.208 381.26 L 539.208 381.26 Q 538.344 382.16 537.768 383.564 L 537.768 383.564 L 537.768 383.564 Q 537.192 384.968 537.192 386.912 L 537.192 386.912 L 537.192 405.272 L 525.816 405.272 L 525.816 386.552 L 525.816 386.552 Q 525.816 382.232 525.204 379.388 L 525.204 379.388 L 525.204 379.388 Q 524.592 376.544 523.8 374.744 L 523.8 374.744 L 523.8 374.744 Q 522.936 372.728 521.856 371.504 L 521.856 371.504 L 531 368.624 L 531 368.624 Q 531.576 369.344 532.224 370.28 L 532.224 370.28 L 532.224 370.28 Q 532.728 371.072 533.304 372.296 L 533.304 372.296 L 533.304 372.296 Q 533.88 373.52 534.24 375.104 L 534.24 375.104 L 534.24 375.104 Q 536.04 371.648 538.524 370.136 L 538.524 370.136 L 538.524 370.136 Q 541.008 368.624 544.392 368.624 L 544.392 368.624 L 544.392 368.624 Q 545.904 368.624 547.092 368.876 L 547.092 368.876 L 547.092 368.876 Q 548.28 369.128 549.072 369.416 L 549.072 369.416 L 546.12 380.288 L 546.12 380.288 Q 545.616 380 544.788 379.748 L 544.788 379.748 L 544.788 379.748 Q 543.96 379.496 542.736 379.496 L 542.736 379.496 Z  M 585.432 402.968 L 576.288 405.848 L 575.856 405.344 L 575.856 405.344 Q 575.424 404.912 574.848 403.976 L 574.848 403.976 L 574.848 403.976 Q 574.272 403.04 573.696 401.708 L 573.696 401.708 L 573.696 401.708 Q 573.12 400.376 572.832 398.648 L 572.832 398.648 L 572.832 398.648 Q 571.608 402.032 569.232 403.868 L 569.232 403.868 L 569.232 403.868 Q 566.856 405.704 562.968 405.704 L 562.968 405.704 L 562.968 405.704 Q 559.44 405.704 556.812 404.408 L 556.812 404.408 L 556.812 404.408 Q 554.184 403.112 552.456 400.772 L 552.456 400.772 L 552.456 400.772 Q 550.728 398.432 549.9 395.12 L 549.9 395.12 L 549.9 395.12 Q 549.072 391.808 549.072 387.776 L 549.072 387.776 L 549.072 387.776 Q 549.072 383.672 550.404 380.144 L 550.404 380.144 L 550.404 380.144 Q 551.736 376.616 554.112 374.06 L 554.112 374.06 L 554.112 374.06 Q 556.488 371.504 559.8 370.064 L 559.8 370.064 L 559.8 370.064 Q 563.112 368.624 567.144 368.624 L 567.144 368.624 L 567.144 368.624 Q 567.792 368.624 568.548 368.696 L 568.548 368.696 L 568.548 368.696 Q 569.304 368.768 570.096 368.84 L 570.096 368.84 L 570.096 353.144 L 581.472 355.016 L 581.472 387.92 L 581.472 387.92 Q 581.472 392.168 582.084 395.048 L 582.084 395.048 L 582.084 395.048 Q 582.696 397.928 583.416 399.692 L 583.416 399.692 L 583.416 399.692 Q 584.136 401.456 584.784 402.176 L 584.784 402.176 L 585.432 402.968 Z  M 564.84 397.352 L 564.84 397.352 Q 565.92 397.352 566.892 396.416 L 566.892 396.416 L 566.892 396.416 Q 567.864 395.48 568.584 393.896 L 568.584 393.896 L 568.584 393.896 Q 569.304 392.312 569.7 390.26 L 569.7 390.26 L 569.7 390.26 Q 570.096 388.208 570.096 385.904 L 570.096 385.904 L 570.096 377.552 L 570.096 377.552 Q 569.592 377.336 568.692 377.156 L 568.692 377.156 L 568.692 377.156 Q 567.792 376.976 567.144 376.976 L 567.144 376.976 L 567.144 376.976 Q 565.416 376.976 564.264 377.732 L 564.264 377.732 L 564.264 377.732 Q 563.112 378.488 562.428 379.82 L 562.428 379.82 L 562.428 379.82 Q 561.744 381.152 561.456 383.024 L 561.456 383.024 L 561.456 383.024 Q 561.168 384.896 561.168 387.056 L 561.168 387.056 L 561.168 387.056 Q 561.168 389.072 561.24 390.908 L 561.24 390.908 L 561.24 390.908 Q 561.312 392.744 561.708 394.184 L 561.708 394.184 L 561.708 394.184 Q 562.104 395.624 562.824 396.488 L 562.824 396.488 L 562.824 396.488 Q 563.544 397.352 564.84 397.352 L 564.84 397.352 Z " fill="rgb(255,255,255)"/>
    <clipPath id="_clipPath_WypqaVfjgBmkDmv3sQX0wEaeody4vrFD">
      <path d=" M 615.024 373.448 L 610.416 377.84 L 610.416 377.84 Q 609.336 376.616 608.22 375.752 L 608.22 375.752 L 608.22 375.752 Q 607.104 374.888 605.232 374.888 L 605.232 374.888 L 605.232 374.888 Q 604.152 374.888 602.82 375.212 L 602.82 375.212 L 602.82 375.212 Q 601.488 375.536 600.336 376.796 L 600.336 376.796 L 600.336 376.796 Q 599.184 378.056 598.428 380.504 L 598.428 380.504 L 598.428 380.504 Q 597.672 382.952 597.672 387.128 L 597.672 387.128 L 597.672 387.128 Q 597.672 391.376 598.428 393.86 L 598.428 393.86 L 598.428 393.86 Q 599.184 396.344 600.372 397.712 L 600.372 397.712 L 600.372 397.712 Q 601.56 399.08 602.928 399.476 L 602.928 399.476 L 602.928 399.476 Q 604.296 399.872 605.592 399.872 L 605.592 399.872 L 605.592 399.872 Q 606.6 399.872 607.68 399.692 L 607.68 399.692 L 607.68 399.692 Q 608.76 399.512 609.768 399.26 L 609.768 399.26 L 609.768 399.26 Q 610.776 399.008 611.532 398.792 L 611.532 398.792 L 611.532 398.792 Q 612.288 398.576 612.648 398.432 L 612.648 398.432 L 614.664 403.616 L 614.664 403.616 Q 614.448 403.688 613.692 404.048 L 613.692 404.048 L 613.692 404.048 Q 612.936 404.408 611.64 404.768 L 611.64 404.768 L 611.64 404.768 Q 610.344 405.128 608.544 405.452 L 608.544 405.452 L 608.544 405.452 Q 606.744 405.776 604.512 405.776 L 604.512 405.776 L 604.512 405.776 Q 600.336 405.776 597.384 404.516 L 597.384 404.516 L 597.384 404.516 Q 594.432 403.256 592.524 400.952 L 592.524 400.952 L 592.524 400.952 Q 590.616 398.648 589.716 395.408 L 589.716 395.408 L 589.716 395.408 Q 588.816 392.168 588.816 388.208 L 588.816 388.208 L 588.816 388.208 Q 588.816 383.456 590.076 379.784 L 590.076 379.784 L 590.076 379.784 Q 591.336 376.112 593.568 373.628 L 593.568 373.628 L 593.568 373.628 Q 595.8 371.144 598.824 369.848 L 598.824 369.848 L 598.824 369.848 Q 601.848 368.552 605.304 368.552 L 605.304 368.552 L 605.304 368.552 Q 608.688 368.552 611.028 369.848 L 611.028 369.848 L 611.028 369.848 Q 613.368 371.144 615.024 373.448 L 615.024 373.448 Z  M 628.704 353.072 L 628.704 374.024 L 628.704 374.024 Q 630.792 371.288 633.708 370.064 L 633.708 370.064 L 633.708 370.064 Q 636.624 368.84 639.864 368.84 L 639.864 368.84 L 639.864 368.84 Q 645.408 368.84 647.892 372.188 L 647.892 372.188 L 647.892 372.188 Q 650.376 375.536 650.376 381.224 L 650.376 381.224 L 650.376 405.272 L 642.168 405.272 L 642.168 381.8 L 642.168 381.8 Q 642.168 378.776 641.088 377.012 L 641.088 377.012 L 641.088 377.012 Q 640.008 375.248 637.416 375.248 L 637.416 375.248 L 637.416 375.248 Q 635.904 375.248 634.356 376.04 L 634.356 376.04 L 634.356 376.04 Q 632.808 376.832 631.548 378.308 L 631.548 378.308 L 631.548 378.308 Q 630.288 379.784 629.496 381.8 L 629.496 381.8 L 629.496 381.8 Q 628.704 383.816 628.704 386.264 L 628.704 386.264 L 628.704 405.272 L 620.496 405.272 L 620.496 354.512 L 628.704 353.072 Z  M 657.216 388.208 L 657.216 388.208 Q 657.216 383.384 658.548 379.712 L 658.548 379.712 L 658.548 379.712 Q 659.88 376.04 662.22 373.556 L 662.22 373.556 L 662.22 373.556 Q 664.56 371.072 667.728 369.812 L 667.728 369.812 L 667.728 369.812 Q 670.896 368.552 674.568 368.552 L 674.568 368.552 L 674.568 368.552 Q 677.808 368.552 680.076 369.344 L 680.076 369.344 L 680.076 369.344 Q 682.344 370.136 683.784 371.504 L 683.784 371.504 L 683.784 371.504 Q 685.224 372.872 685.908 374.744 L 685.908 374.744 L 685.908 374.744 Q 686.592 376.616 686.592 378.776 L 686.592 378.776 L 686.592 378.776 Q 686.592 381.368 685.152 383.708 L 685.152 383.708 L 685.152 383.708 Q 683.712 386.048 681.012 387.812 L 681.012 387.812 L 681.012 387.812 Q 678.312 389.576 674.496 390.62 L 674.496 390.62 L 674.496 390.62 Q 670.68 391.664 665.928 391.736 L 665.928 391.736 L 665.928 391.736 Q 666.144 393.392 666.612 394.868 L 666.612 394.868 L 666.612 394.868 Q 667.08 396.344 667.98 397.46 L 667.98 397.46 L 667.98 397.46 Q 668.88 398.576 670.32 399.224 L 670.32 399.224 L 670.32 399.224 Q 671.76 399.872 673.92 399.872 L 673.92 399.872 L 673.92 399.872 Q 675.504 399.872 677.304 399.512 L 677.304 399.512 L 677.304 399.512 Q 679.104 399.152 680.616 398.648 L 680.616 398.648 L 680.616 398.648 Q 682.416 398.072 684.144 397.352 L 684.144 397.352 L 686.304 402.464 L 686.304 402.464 Q 684.432 403.4 682.272 404.12 L 682.272 404.12 L 682.272 404.12 Q 680.4 404.768 677.952 405.272 L 677.952 405.272 L 677.952 405.272 Q 675.504 405.776 672.768 405.776 L 672.768 405.776 L 672.768 405.776 Q 668.592 405.776 665.64 404.516 L 665.64 404.516 L 665.64 404.516 Q 662.688 403.256 660.816 400.952 L 660.816 400.952 L 660.816 400.952 Q 658.944 398.648 658.08 395.408 L 658.08 395.408 L 658.08 395.408 Q 657.216 392.168 657.216 388.208 L 657.216 388.208 Z  M 673.92 374.168 L 673.92 374.168 Q 671.544 374.168 669.996 375.284 L 669.996 375.284 L 669.996 375.284 Q 668.448 376.4 667.512 378.164 L 667.512 378.164 L 667.512 378.164 Q 666.576 379.928 666.18 382.124 L 666.18 382.124 L 666.18 382.124 Q 665.784 384.32 665.712 386.552 L 665.712 386.552 L 665.712 386.552 Q 669.168 386.408 671.58 385.652 L 671.58 385.652 L 671.58 385.652 Q 673.992 384.896 675.504 383.78 L 675.504 383.78 L 675.504 383.78 Q 677.016 382.664 677.7 381.368 L 677.7 381.368 L 677.7 381.368 Q 678.384 380.072 678.384 378.776 L 678.384 378.776 L 678.384 378.776 Q 678.384 376.688 677.16 375.428 L 677.16 375.428 L 677.16 375.428 Q 675.936 374.168 673.92 374.168 L 673.92 374.168 Z  M 722.376 370.928 L 722.376 387.92 L 722.376 387.92 Q 722.376 392.24 722.916 395.156 L 722.916 395.156 L 722.916 395.156 Q 723.456 398.072 724.104 399.872 L 724.104 399.872 L 724.104 399.872 Q 724.896 402.032 725.832 403.256 L 725.832 403.256 L 719.424 405.848 L 719.424 405.848 Q 718.488 404.912 717.696 403.616 L 717.696 403.616 L 717.696 403.616 Q 717.048 402.464 716.472 400.844 L 716.472 400.844 L 716.472 400.844 Q 715.896 399.224 715.752 396.992 L 715.752 396.992 L 715.752 396.992 Q 714.528 401.312 711.828 403.508 L 711.828 403.508 L 711.828 403.508 Q 709.128 405.704 704.52 405.704 L 704.52 405.704 L 704.52 405.704 Q 701.136 405.704 698.652 404.444 L 698.652 404.444 L 698.652 404.444 Q 696.168 403.184 694.512 400.844 L 694.512 400.844 L 694.512 400.844 Q 692.856 398.504 692.064 395.192 L 692.064 395.192 L 692.064 395.192 Q 691.272 391.88 691.272 387.848 L 691.272 387.848 L 691.272 387.848 Q 691.272 383.744 692.532 380.252 L 692.532 380.252 L 692.532 380.252 Q 693.792 376.76 696.06 374.24 L 696.06 374.24 L 696.06 374.24 Q 698.328 371.72 701.496 370.28 L 701.496 370.28 L 701.496 370.28 Q 704.664 368.84 708.48 368.84 L 708.48 368.84 L 708.48 368.84 Q 710.64 368.84 712.98 369.164 L 712.98 369.164 L 712.98 369.164 Q 715.32 369.488 717.336 369.848 L 717.336 369.848 L 717.336 369.848 Q 719.352 370.208 720.756 370.532 L 720.756 370.532 L 720.756 370.532 Q 722.16 370.856 722.376 370.928 L 722.376 370.928 Z  M 705.888 399.944 L 705.888 399.944 Q 707.688 399.944 709.2 398.72 L 709.2 398.72 L 709.2 398.72 Q 710.712 397.496 711.828 395.516 L 711.828 395.516 L 711.828 395.516 Q 712.944 393.536 713.556 390.98 L 713.556 390.98 L 713.556 390.98 Q 714.168 388.424 714.168 385.76 L 714.168 385.76 L 714.168 375.392 L 714.168 375.392 Q 713.448 375.176 712.008 374.888 L 712.008 374.888 L 712.008 374.888 Q 710.568 374.6 709.416 374.6 L 709.416 374.6 L 709.416 374.6 Q 706.68 374.6 704.916 375.536 L 704.916 375.536 L 704.916 375.536 Q 703.152 376.472 702.072 378.128 L 702.072 378.128 L 702.072 378.128 Q 700.992 379.784 700.56 382.088 L 700.56 382.088 L 700.56 382.088 Q 700.128 384.392 700.128 387.128 L 700.128 387.128 L 700.128 387.128 Q 700.128 389.648 700.272 391.952 L 700.272 391.952 L 700.272 391.952 Q 700.416 394.256 701.028 396.056 L 701.028 396.056 L 701.028 396.056 Q 701.64 397.856 702.792 398.9 L 702.792 398.9 L 702.792 398.9 Q 703.944 399.944 705.888 399.944 L 705.888 399.944 Z  M 728.064 375.248 L 728.064 369.416 L 734.544 369.416 L 735.984 360.992 L 742.752 359.48 L 742.752 369.416 L 751.608 369.416 L 750.6 375.248 L 742.752 375.248 L 742.752 396.56 L 742.752 396.56 Q 742.752 398.432 743.76 398.972 L 743.76 398.972 L 743.76 398.972 Q 744.768 399.512 745.992 399.512 L 745.992 399.512 L 745.992 399.512 Q 747 399.512 748.008 399.368 L 748.008 399.368 L 748.008 399.368 Q 749.016 399.224 749.808 399.008 L 749.808 399.008 L 749.808 399.008 Q 750.744 398.792 751.608 398.504 L 751.608 398.504 L 752.976 403.904 L 752.328 404.12 L 752.328 404.12 Q 751.68 404.408 750.42 404.732 L 750.42 404.732 L 750.42 404.732 Q 749.16 405.056 747.468 405.308 L 747.468 405.308 L 747.468 405.308 Q 745.776 405.56 743.76 405.56 L 743.76 405.56 L 743.76 405.56 Q 741.744 405.56 740.052 405.128 L 740.052 405.128 L 740.052 405.128 Q 738.36 404.696 737.136 403.724 L 737.136 403.724 L 737.136 403.724 Q 735.912 402.752 735.228 401.24 L 735.228 401.24 L 735.228 401.24 Q 734.544 399.728 734.544 397.496 L 734.544 397.496 L 734.544 375.248 L 728.064 375.248 Z  M 443.952 373.52 L 438.336 379.352 L 438.336 379.352 Q 437.472 378.344 436.536 377.624 L 436.536 377.624 L 436.536 377.624 Q 435.6 376.904 434.16 376.904 L 434.16 376.904 L 434.16 376.904 Q 433.296 376.904 432.216 377.192 L 432.216 377.192 L 432.216 377.192 Q 431.136 377.48 430.2 378.524 L 430.2 378.524 L 430.2 378.524 Q 429.264 379.568 428.652 381.548 L 428.652 381.548 L 428.652 381.548 Q 428.04 383.528 428.04 386.984 L 428.04 386.984 L 428.04 386.984 Q 428.04 390.368 428.724 392.42 L 428.724 392.42 L 428.724 392.42 Q 429.408 394.472 430.452 395.552 L 430.452 395.552 L 430.452 395.552 Q 431.496 396.632 432.756 396.992 L 432.756 396.992 L 432.756 396.992 Q 434.016 397.352 435.168 397.352 L 435.168 397.352 L 435.168 397.352 Q 436.032 397.352 437.04 397.136 L 437.04 397.136 L 437.04 397.136 Q 438.048 396.92 438.948 396.668 L 438.948 396.668 L 438.948 396.668 Q 439.848 396.416 440.496 396.164 L 440.496 396.164 L 440.496 396.164 Q 441.144 395.912 441.216 395.912 L 441.216 395.912 L 443.304 403.472 L 442.512 403.832 L 442.512 403.832 Q 441.72 404.264 440.316 404.732 L 440.316 404.732 L 440.316 404.732 Q 438.912 405.2 436.932 405.56 L 436.932 405.56 L 436.932 405.56 Q 434.952 405.92 432.576 405.92 L 432.576 405.92 L 432.576 405.92 Q 428.184 405.92 425.016 404.624 L 425.016 404.624 L 425.016 404.624 Q 421.848 403.328 419.832 401.024 L 419.832 401.024 L 419.832 401.024 Q 417.816 398.72 416.88 395.444 L 416.88 395.444 L 416.88 395.444 Q 415.944 392.168 415.944 388.208 L 415.944 388.208 L 415.944 388.208 Q 415.944 383.384 417.276 379.676 L 417.276 379.676 L 417.276 379.676 Q 418.608 375.968 420.948 373.448 L 420.948 373.448 L 420.948 373.448 Q 423.288 370.928 426.492 369.668 L 426.492 369.668 L 426.492 369.668 Q 429.696 368.408 433.44 368.408 L 433.44 368.408 L 433.44 368.408 Q 436.968 368.408 439.632 369.812 L 439.632 369.812 L 439.632 369.812 Q 442.296 371.216 443.952 373.52 L 443.952 373.52 Z  M 459.648 353.072 L 459.648 371.864 L 459.648 371.864 Q 461.52 370.208 463.968 369.416 L 463.968 369.416 L 463.968 369.416 Q 466.416 368.624 469.08 368.624 L 469.08 368.624 L 469.08 368.624 Q 474.696 368.624 477.072 372.008 L 477.072 372.008 L 477.072 372.008 Q 479.448 375.392 479.448 381.152 L 479.448 381.152 L 479.448 405.272 L 468 405.272 L 468 382.808 L 468 382.808 Q 468 380.288 467.388 378.74 L 467.388 378.74 L 467.388 378.74 Q 466.776 377.192 465.12 377.192 L 465.12 377.192 L 465.12 377.192 Q 464.184 377.192 463.212 377.804 L 463.212 377.804 L 463.212 377.804 Q 462.24 378.416 461.448 379.604 L 461.448 379.604 L 461.448 379.604 Q 460.656 380.792 460.152 382.484 L 460.152 382.484 L 460.152 382.484 Q 459.648 384.176 459.648 386.264 L 459.648 386.264 L 459.648 405.272 L 448.272 405.272 L 448.272 355.016 L 459.648 353.072 Z  M 502.2 368.408 L 502.2 368.408 Q 510.768 368.408 514.692 373.304 L 514.692 373.304 L 514.692 373.304 Q 518.616 378.2 518.616 386.84 L 518.616 386.84 L 518.616 386.84 Q 518.616 390.944 517.572 394.436 L 517.572 394.436 L 517.572 394.436 Q 516.528 397.928 514.404 400.484 L 514.404 400.484 L 514.404 400.484 Q 512.28 403.04 509.076 404.516 L 509.076 404.516 L 509.076 404.516 Q 505.872 405.992 501.624 405.992 L 501.624 405.992 L 501.624 405.992 Q 497.304 405.992 494.172 404.732 L 494.172 404.732 L 494.172 404.732 Q 491.04 403.472 489.06 401.096 L 489.06 401.096 L 489.06 401.096 Q 487.08 398.72 486.108 395.3 L 486.108 395.3 L 486.108 395.3 Q 485.136 391.88 485.136 387.632 L 485.136 387.632 L 485.136 387.632 Q 485.136 383.528 486.18 380 L 486.18 380 L 486.18 380 Q 487.224 376.472 489.348 373.916 L 489.348 373.916 L 489.348 373.916 Q 491.472 371.36 494.676 369.884 L 494.676 369.884 L 494.676 369.884 Q 497.88 368.408 502.2 368.408 L 502.2 368.408 Z  M 501.552 376.976 L 501.552 376.976 Q 500.256 376.976 499.392 377.732 L 499.392 377.732 L 499.392 377.732 Q 498.528 378.488 498.06 379.82 L 498.06 379.82 L 498.06 379.82 Q 497.592 381.152 497.412 382.952 L 497.412 382.952 L 497.412 382.952 Q 497.232 384.752 497.232 386.84 L 497.232 386.84 L 497.232 386.84 Q 497.232 389 497.448 390.944 L 497.448 390.944 L 497.448 390.944 Q 497.664 392.888 498.204 394.328 L 498.204 394.328 L 498.204 394.328 Q 498.744 395.768 499.752 396.596 L 499.752 396.596 L 499.752 396.596 Q 500.76 397.424 502.272 397.424 L 502.272 397.424 L 502.272 397.424 Q 503.568 397.424 504.432 396.632 L 504.432 396.632 L 504.432 396.632 Q 505.296 395.84 505.764 394.508 L 505.764 394.508 L 505.764 394.508 Q 506.232 393.176 506.412 391.376 L 506.412 391.376 L 506.412 391.376 Q 506.592 389.576 506.592 387.56 L 506.592 387.56 L 506.592 387.56 Q 506.592 385.328 506.376 383.42 L 506.376 383.42 L 506.376 383.42 Q 506.16 381.512 505.62 380.072 L 505.62 380.072 L 505.62 380.072 Q 505.08 378.632 504.072 377.804 L 504.072 377.804 L 504.072 377.804 Q 503.064 376.976 501.552 376.976 L 501.552 376.976 Z  M 542.736 379.496 L 542.736 379.496 Q 541.944 379.496 541.008 379.928 L 541.008 379.928 L 541.008 379.928 Q 540.072 380.36 539.208 381.26 L 539.208 381.26 L 539.208 381.26 Q 538.344 382.16 537.768 383.564 L 537.768 383.564 L 537.768 383.564 Q 537.192 384.968 537.192 386.912 L 537.192 386.912 L 537.192 405.272 L 525.816 405.272 L 525.816 386.552 L 525.816 386.552 Q 525.816 382.232 525.204 379.388 L 525.204 379.388 L 525.204 379.388 Q 524.592 376.544 523.8 374.744 L 523.8 374.744 L 523.8 374.744 Q 522.936 372.728 521.856 371.504 L 521.856 371.504 L 531 368.624 L 531 368.624 Q 531.576 369.344 532.224 370.28 L 532.224 370.28 L 532.224 370.28 Q 532.728 371.072 533.304 372.296 L 533.304 372.296 L 533.304 372.296 Q 533.88 373.52 534.24 375.104 L 534.24 375.104 L 534.24 375.104 Q 536.04 371.648 538.524 370.136 L 538.524 370.136 L 538.524 370.136 Q 541.008 368.624 544.392 368.624 L 544.392 368.624 L 544.392 368.624 Q 545.904 368.624 547.092 368.876 L 547.092 368.876 L 547.092 368.876 Q 548.28 369.128 549.072 369.416 L 549.072 369.416 L 546.12 380.288 L 546.12 380.288 Q 545.616 380 544.788 379.748 L 544.788 379.748 L 544.788 379.748 Q 543.96 379.496 542.736 379.496 L 542.736 379.496 Z  M 585.432 402.968 L 576.288 405.848 L 575.856 405.344 L 575.856 405.344 Q 575.424 404.912 574.848 403.976 L 574.848 403.976 L 574.848 403.976 Q 574.272 403.04 573.696 401.708 L 573.696 401.708 L 573.696 401.708 Q 573.12 400.376 572.832 398.648 L 572.832 398.648 L 572.832 398.648 Q 571.608 402.032 569.232 403.868 L 569.232 403.868 L 569.232 403.868 Q 566.856 405.704 562.968 405.704 L 562.968 405.704 L 562.968 405.704 Q 559.44 405.704 556.812 404.408 L 556.812 404.408 L 556.812 404.408 Q 554.184 403.112 552.456 400.772 L 552.456 400.772 L 552.456 400.772 Q 550.728 398.432 549.9 395.12 L 549.9 395.12 L 549.9 395.12 Q 549.072 391.808 549.072 387.776 L 549.072 387.776 L 549.072 387.776 Q 549.072 383.672 550.404 380.144 L 550.404 380.144 L 550.404 380.144 Q 551.736 376.616 554.112 374.06 L 554.112 374.06 L 554.112 374.06 Q 556.488 371.504 559.8 370.064 L 559.8 370.064 L 559.8 370.064 Q 563.112 368.624 567.144 368.624 L 567.144 368.624 L 567.144 368.624 Q 567.792 368.624 568.548 368.696 L 568.548 368.696 L 568.548 368.696 Q 569.304 368.768 570.096 368.84 L 570.096 368.84 L 570.096 353.144 L 581.472 355.016 L 581.472 387.92 L 581.472 387.92 Q 581.472 392.168 582.084 395.048 L 582.084 395.048 L 582.084 395.048 Q 582.696 397.928 583.416 399.692 L 583.416 399.692 L 583.416 399.692 Q 584.136 401.456 584.784 402.176 L 584.784 402.176 L 585.432 402.968 Z  M 564.84 397.352 L 564.84 397.352 Q 565.92 397.352 566.892 396.416 L 566.892 396.416 L 566.892 396.416 Q 567.864 395.48 568.584 393.896 L 568.584 393.896 L 568.584 393.896 Q 569.304 392.312 569.7 390.26 L 569.7 390.26 L 569.7 390.26 Q 570.096 388.208 570.096 385.904 L 570.096 385.904 L 570.096 377.552 L 570.096 377.552 Q 569.592 377.336 568.692 377.156 L 568.692 377.156 L 568.692 377.156 Q 567.792 376.976 567.144 376.976 L 567.144 376.976 L 567.144 376.976 Q 565.416 376.976 564.264 377.732 L 564.264 377.732 L 564.264 377.732 Q 563.112 378.488 562.428 379.82 L 562.428 379.82 L 562.428 379.82 Q 561.744 381.152 561.456 383.024 L 561.456 383.024 L 561.456 383.024 Q 561.168 384.896 561.168 387.056 L 561.168 387.056 L 561.168 387.056 Q 561.168 389.072 561.24 390.908 L 561.24 390.908 L 561.24 390.908 Q 561.312 392.744 561.708 394.184 L 561.708 394.184 L 561.708 394.184 Q 562.104 395.624 562.824 396.488 L 562.824 396.488 L 562.824 396.488 Q 563.544 397.352 564.84 397.352 L 564.84 397.352 Z " fill="rgb(255,255,255)"/>
    </clipPath>
    <g clip-path="url(#_clipPath_WypqaVfjgBmkDmv3sQX0wEaeody4vrFD)">
      <rect x="400.128" y="397.35" width="369.92" height="15.578" transform="matrix(1,0,0,1,0,0)" fill="rgb(25,146,212)" class="bottom-fill"/>
      <rect x="399.488" y="386.048" width="371.2" height="11.546" transform="matrix(1,0,0,1,0,0)" fill="rgb(18,127,191)" class="middle-fill"/>
      <rect x="399.488" y="340.608" width="371.84" height="46.08" transform="matrix(1,0,0,1,0,0)" fill="rgb(11,105,163)" class="top-fill"/>
    </g>
  </g>
</svg>